{
	"id": "6ecc0718-4b87-4993-b414-b908e9251d7f",
	"name": "Prod",
	"values": [
		{
			"key": "baseUrl",
			"value": "http://carsapi-env.eba-tppcpmjq.us-east-2.elasticbeanstalk.com/",
			"enabled": true
		}
	],
	"_postman_variable_scope": "environment",
	"_postman_exported_at": "2020-11-10T17:09:52.760Z",
	"_postman_exported_using": "Postman/7.34.0"
}